Decision Curve Analysis • dcurves
…
Now that the graph is showing a more reasonable range of threshold probabilities, let’s assess the clinical utility of family history alone. We can see here that although family history is significantly associated with biopsy outcome, it only adds value to a small range of threshold probabilities near 13% - 20%. If your personal threshold probability is 15% (i.e. you would undergo a biopsy if your probability of cancer was greater than 15%), then family history alone can be beneficial in making the decision to undergo biopsy. However, if your threshold probability is less than 13% or higher than 20%, then family history adds no more benefit than a biopsy all, or biopsy none scheme.

Multivariable Decision Curve Analysis

Evaluation of New Models

We wanted to examine the value of a statistical model that incorporates family history, age, and the marker. First we will build the logistic regression model with all three variables, and second we would have saved out the predicted probability of having cancer based on the model. Note that in our example data set, this variable actually already exists so it wouldn’t be necessary to create the predicted probabilities once again.

glm(cancer ~ marker + age + famhistory, df_binary, family = binomial) %>%
  broom::augment(newdata = df_binary, type.predict = "response") 
#> # A tibble: 750 x 9
#>    patientid cancer  dead risk_group     age famhistory marker cancerpredmarker
#>        <dbl>  <dbl> <dbl> <chr>        <dbl>      <dbl>  <dbl>            <dbl>
#>  1         1      0     0 low           64.0          0 0.776           0.0372 
#>  2         2      0     0 high          78.5          0 0.267           0.579  
#>  3         3      0     0 low           64.1          0 0.170           0.0216 
#>  4         4      0     0 low           58.5          0 0.0240          0.00391
#>  5         5      0     0 low           64.0          0 0.0709          0.0188 
#>  6         6      0     0 intermediate  65.7          0 0.428           0.0426 
#>  7         7      0     1 intermediate  71.9          0 0.942           0.296  
#>  8         8      1     0 intermediate  66.6          0 2.91            0.387  
#>  9         9      0     0 low           64.3          0 0.715           0.0373 
#> 10        10      0     0 intermediate  65.7          0 0.129           0.0320 
#> # … with 740 more rows, and 1 more variable: .fitted <dbl>
…
